S00C0000666967322E73726563B0
S1130000270000EB0000A0E3BC0F09EE1110A0E3F1
S11300103D1F09EE0100A0E3BC0F09EE0610A0E3AA
S11300203D1F09EE0200A0E3BC0F09EE0310A0E39C
S11300303D1F09EE0700A0E33C0F09EE0300A0E317
S11300401C0F09EE0116A0E3012CA0E30230A0E38B
S11300500040A0E30050A0E3056291E7015085E26F
S1130060020055E1FBFFFFBA014084E2030054E1C2
S1130070F7FFFFBA0000A0E31C0F09EE0000A0E3A5
S1130080BC0F09EE5D3F19EE0100A0E3BC0F09EEC1
S11300905D7F19EE0200A0E3BC0F09EE5D8F19EE3F
S11300A0FEFFFFEAF0032DE9100F11EEA8109FE503
S11300B0010050E12500001A0166A0E3007096E5F6
S11300C00286A0E3009098E590109FE590209FE5BC
S11300D00136A0E30142A0E30000A0E3900305E0A1
S11300E0010B50E3015085B1025085A1005184E712
S11300F0010080E2010A50E3F7FFFFBA035081E0F8
S1130100085084E5835081E0045084E50000A0E3B6
S1130110500F02EE0102A0E3100F02EE0100A0E373
S1130120100F03EE0000A0E3300F0DEE100F11EEE0
S1130130050080E3100F01EE6FF07FF5001096E5E7
S1130140090051E10100001A0000A0E3000000EAE8
S11301500100A0E3F003BDE81EFF2FE17A18C500FB
S10B01600E1C0800020C08004B
S11301680000000000000000000000008001000002
S10B017800000000000000007B
S9030000FC
