
C:/Users/erikl/Documents/Classes/2018WT1/CPEN 211/git/lab11/fig2.axf:     file format elf32-littlearm


Disassembly of section .text:

00000000 <__cs3_interrupt_vector>:
.text
.global  _start
_start:
    BL CONFIG_VIRTUAL_MEMORY
   0:	eb000027 	bl	a4 <CONFIG_VIRTUAL_MEMORY>

    // Step 1-3: configure PMN0 to count cycles.
    MOV R0, #0                  //Write 0 into R0 then PMSELR
   4:	e3a00000 	mov	r0, #0
    MCR p15, 0, R0, c9, c12, 5  //Write 0 into PMSELR selects PNM0
   8:	ee090fbc 	mcr	15, 0, r0, cr9, cr12, {5}
    MOV R1, #0x11               //Event 0x11 is CPU cycles
   c:	e3a01011 	mov	r1, #17
    MCR p15, 0, R1, c9, c13, 1  //Write 0x11 into PMXEVTYPER (PMN0 measure CPU cycles.)
  10:	ee091f3d 	mcr	15, 0, r1, cr9, cr13, {1}
    MOV R0, #1                  //Write 1 into R0 then PMSELR
  14:	e3a00001 	mov	r0, #1
    MCR p15, 0, R0, c9, c12, 5  //Write 1 into PMSELR selects PNM1
  18:	ee090fbc 	mcr	15, 0, r0, cr9, cr12, {5}
    MOV R1, #0x6                //Event 0x6 is number of load instructions executed.
  1c:	e3a01006 	mov	r1, #6
    MCR p15, 0, R1, c9, c13, 1  //Write 0x6 into PMXEVTYPER (PMN1 measure load instructions executed.)
  20:	ee091f3d 	mcr	15, 0, r1, cr9, cr13, {1}
    MOV R0, #2                  //Write 2 into R0 then PMSELR
  24:	e3a00002 	mov	r0, #2
    MCR p15, 0, R0, c9, c12, 5  //Write 2 into PMSELR selects PNM2
  28:	ee090fbc 	mcr	15, 0, r0, cr9, cr12, {5}
    MOV R1, #0x3                //Event 0x3 is level 1 data cache misses.
  2c:	e3a01003 	mov	r1, #3
    MCR p15, 0, R1, c9, c13, 1  //Write 0x3 into PMXEVTYPER (PMN2 measure data cache misses.)
  30:	ee091f3d 	mcr	15, 0, r1, cr9, cr13, {1}
    // Step 4: enable PMNx
    MOV R0, #0b111              //PMN0 is nit 0 of PMCNTENSET
  34:	e3a00007 	mov	r0, #7
    MCR p15, 0, R0, c9, c12, 1  //Setting bit 0 of PMCNTENSET enbales PMN0
  38:	ee090f3c 	mcr	15, 0, r0, cr9, cr12, {1}
    // Step 5: clear all counters and start counters
    MOV r0, #3                  //bits 0 (start counters) and 1 (reset counters)
  3c:	e3a00003 	mov	r0, #3
    MCR p15, 0, r0, c9, c12, 0  //setting PMCR to 3
  40:	ee090f1c 	mcr	15, 0, r0, cr9, cr12, {0}

    // Step 6: code we wish to profile using hardware counters
    mov r1, #0x00100000         //base of array
  44:	e3a01601 	mov	r1, #1048576	; 0x100000
    mov r2, #0x100              //iterations of inner loop
  48:	e3a02c01 	mov	r2, #256	; 0x100
    mov r3, #2                  //interations of outer loop.
  4c:	e3a03002 	mov	r3, #2
    mov r4, #0                  //i=0 (outer loop counter)
  50:	e3a04000 	mov	r4, #0

00000054 <L_outer_loop>:
L_outer_loop:
    mov r5, #0                  //j=0 (inner loop counter)
  54:	e3a05000 	mov	r5, #0

00000058 <L_inner_loop>:
L_inner_loop:
    ldr r6, [r1, r5, LSL #4]    //read data from memory
  58:	e7916205 	ldr	r6, [r1, r5, lsl #4]
    add r5, r5, #1              //j=j+1
  5c:	e2855001 	add	r5, r5, #1
    cmp r5, r2                  //compare j with 256
  60:	e1550002 	cmp	r5, r2
    blt L_inner_loop            //branch if less than
  64:	bafffffb 	blt	58 <L_inner_loop>
    add r4, r4, #1              //i=i+1
  68:	e2844001 	add	r4, r4, #1
    cmp r4, r3                  //compare i with 2
  6c:	e1540003 	cmp	r4, r3
    blt L_outer_loop            //branch if less than
  70:	bafffff7 	blt	54 <L_outer_loop>

    //Step 7: stop counters
    mov r0, #0
  74:	e3a00000 	mov	r0, #0
    MCR p15, 0 , r0, c9, c12, 0 //Write 0 to PMCR to stop counters
  78:	ee090f1c 	mcr	15, 0, r0, cr9, cr12, {0}

    //Step 8-10: Select PMNx and read out result into Ry.
    mov r0, #0                  //PMN0
  7c:	e3a00000 	mov	r0, #0
    MCR p15, 0, R0, c9, c12, 5  //Write 0 to PMSELR
  80:	ee090fbc 	mcr	15, 0, r0, cr9, cr12, {5}
    MRC p15, 0, R3, c9, c13, 2  //Read PMXEVCNTR into R3
  84:	ee193f5d 	mrc	15, 0, r3, cr9, cr13, {2}
    mov r0, #1                  //PMN1
  88:	e3a00001 	mov	r0, #1
    MCR p15, 0, R0, c9, c12, 5  //Write 1 to PMSELR
  8c:	ee090fbc 	mcr	15, 0, r0, cr9, cr12, {5}
    MRC p15, 0, R7, c9, c13, 2  //Read PMXEVCNTR into R7
  90:	ee197f5d 	mrc	15, 0, r7, cr9, cr13, {2}
    mov r0, #2                  //PMN2
  94:	e3a00002 	mov	r0, #2
    MCR p15, 0, R0, c9, c12, 5  //Write 2 to PMSELR
  98:	ee090fbc 	mcr	15, 0, r0, cr9, cr12, {5}
    MRC p15, 0, R8, c9, c13, 2  //Read PMXEVCNTR into R8
  9c:	ee198f5d 	mrc	15, 0, r8, cr9, cr13, {2}

000000a0 <end>:
end: b end
  a0:	eafffffe 	b	a0 <end>

000000a4 <CONFIG_VIRTUAL_MEMORY>:
      .equ  TRANS_TABLE_N, 0
      .equ  SECTION_SIZE, 0x100000

      .global CONFIG_VIRTUAL_MEMORY
CONFIG_VIRTUAL_MEMORY:
      PUSH {R4-R9}
  a4:	e92d03f0 	push	{r4, r5, r6, r7, r8, r9}

      /* Verify System Control Register contents */
      MRC p15, 0, R0, c1, c0, 0 /* Read SCTLR into Rt */
  a8:	ee110f10 	mrc	15, 0, r0, cr1, cr0, {0}
      LDR R1, =0x00C5187A
  ac:	e59f10a8 	ldr	r1, [pc, #168]	; 15c <CPT_RETURN+0x8>
      CMP R0, R1
  b0:	e1500001 	cmp	r0, r1
      BNE CPT_ERROR
  b4:	1a000025 	bne	150 <CPT_ERROR>

      LDR R6, =0x100000 /* address to try to read after MMU configured */
  b8:	e3a06601 	mov	r6, #1048576	; 0x100000
      LDR R7, [R6]      /* R7 is contents of word at physical address 0x100000 */
  bc:	e5967000 	ldr	r7, [r6]
      LDR R8, =0x200000 /* address to try to read after MMU configured */
  c0:	e3a08602 	mov	r8, #2097152	; 0x200000
      LDR R9, [R8]      /* R9 has contents of word at physical address 0x200000 */
  c4:	e5989000 	ldr	r9, [r8]

      /* initialize level 1 translation table */
               /*1111111111          */
               /*98765432109876543210*/
      LDR R1, =0b10000001110000001110    /* lower 20 bits of section descriptor for cacheable sections */
  c8:	e59f1090 	ldr	r1, [pc, #144]	; 160 <CPT_RETURN+0xc>
      LDR R2, =0b10000000110000000010    /* lower 20 bits of section descriptor for device sections */
  cc:	e59f2090 	ldr	r2, [pc, #144]	; 164 <CPT_RETURN+0x10>
      LDR R3, =SECTION_SIZE
  d0:	e3a03601 	mov	r3, #1048576	; 0x100000
      LDR R4, =TRANS_TABLE_0_BASE
  d4:	e3a04201 	mov	r4, #268435456	; 0x10000000
      MOV R0, #0  /* loop counter */
  d8:	e3a00000 	mov	r0, #0

000000dc <CPT_L1>:
CPT_L1: 
      MUL   R5, R0, R3                     /* physical address of section */
  dc:	e0050390 	mul	r5, r0, r3
      CMP   R0, #UNCACHABLE_START 
  e0:	e3500b01 	cmp	r0, #1024	; 0x400
      ORRLT R5, R5, R1
  e4:	b1855001 	orrlt	r5, r5, r1
      ORRGE R5, R5, R2
  e8:	a1855002 	orrge	r5, r5, r2
      STR   R5, [R4, R0, LSL #2]
  ec:	e7845100 	str	r5, [r4, r0, lsl #2]
      ADD   R0, R0, #1
  f0:	e2800001 	add	r0, r0, #1
      CMP   R0, #0x1000
  f4:	e3500a01 	cmp	r0, #4096	; 0x1000
      BLT   CPT_L1
  f8:	bafffff7 	blt	dc <CPT_L1>

      /* for testing address translation: remap second two pages */
      ADD R5, R1, R3
  fc:	e0815003 	add	r5, r1, r3
      STR R5, [R4, #8]  /* virtual page 2 => physical page 1 */
 100:	e5845008 	str	r5, [r4, #8]
      ADD R5, R1, R3, LSL #1
 104:	e0815083 	add	r5, r1, r3, lsl #1
      STR R5, [R4, #4]  /* virtual page 1 => physical page 2 */
 108:	e5845004 	str	r5, [r4, #4]

      /* set Translation Table Base Control Register */
      MOV R0, #TRANS_TABLE_N
 10c:	e3a00000 	mov	r0, #0
      MCR p15, 0, R0, c2, c0, 2 /* TTBCR.N = 0 */
 110:	ee020f50 	mcr	15, 0, r0, cr2, cr0, {2}

      /* set Translation Table Base Register 0 */
      LDR R0,=TRANS_TABLE_0_BASE 
 114:	e3a00201 	mov	r0, #268435456	; 0x10000000
      MCR p15, 0, R0, c2, c0, 0 /* TTBR0 = TRANS_TABLE_0_BASE */
 118:	ee020f10 	mcr	15, 0, r0, cr2, cr0, {0}

      /* set Domain Access Control Register */
      MOV R0, #1
 11c:	e3a00001 	mov	r0, #1
      MCR p15, 0, R0, c3, c0, 0 /* Domain 0 is client */
 120:	ee030f10 	mcr	15, 0, r0, cr3, cr0, {0}

      /* set Context ID Register */
      MOV R0, #0
 124:	e3a00000 	mov	r0, #0
      MCR p15, 0, R0, c13, c0, 1 /* PROCID = 0, ACID = 0 */
 128:	ee0d0f30 	mcr	15, 0, r0, cr13, cr0, {1}

      /* enable data cache and MMU */
      MRC p15, 0, R0, c1, c0, 0 /* Read SCTLR into Rt */
 12c:	ee110f10 	mrc	15, 0, r0, cr1, cr0, {0}
      ORR R0, R0, #0b101
 130:	e3800005 	orr	r0, r0, #5
      MCR p15, 0, R0, c1, c0, 0 /* Write Rt to SCTLR */ 
 134:	ee010f10 	mcr	15, 0, r0, cr1, cr0, {0}

      ISB
 138:	f57ff06f 	isb	sy

      LDR   R1, [R6] /* R1 has contents of memory at virtual address 0x100000 
 13c:	e5961000 	ldr	r1, [r6]
                        which should be physical address 0x200000 */

      CMP   R1, R9   /* R1 should match R9 if address translation worked */
 140:	e1510009 	cmp	r1, r9
      BNE   CPT_ERROR 
 144:	1a000001 	bne	150 <CPT_ERROR>

      MOV   R0, #0
 148:	e3a00000 	mov	r0, #0
      B     CPT_RETURN
 14c:	ea000000 	b	154 <CPT_RETURN>

00000150 <CPT_ERROR>:
CPT_ERROR:
      MOV   R0, #1
 150:	e3a00001 	mov	r0, #1

00000154 <CPT_RETURN>:
CPT_RETURN:
      POP   {R4-R9}
 154:	e8bd03f0 	pop	{r4, r5, r6, r7, r8, r9}
      BX    LR
 158:	e12fff1e 	bx	lr
 15c:	00c5187a 	.word	0x00c5187a
 160:	00081c0e 	.word	0x00081c0e
 164:	00080c02 	.word	0x00080c02
