S0110000706167657461626C652E737265636E
S1130000F0032DE9100F11EEA8109FE5010050E157
S11300102500001A0166A0E3007096E50286A0E3BD
S1130020009098E590109FE590209FE50136A0E3AD
S11300300142A0E30000A0E3900305E0010B50E3BC
S1130040015085B1025085A1005184E7010080E28E
S1130050010A50E3F7FFFFBA035081E0085084E53A
S1130060835081E0045084E50000A0E3500F02EEC9
S11300700102A0E3100F02EE0100A0E3100F03EE53
S11300800000A0E3300F0DEE100F11EE050080E329
S1130090100F01EE6FF07FF5001096E5090051E1B5
S11300A00100001A0000A0E3000000EA0100A0E340
S11300B0F003BDE81EFF2FE17A18C5000E1C0800EE
S11300C0020C080010000000000000000000000006
S11300D010000000000000000000144000000000B8
S11300E00000144000000000000014400000000064
S11300F00000144000000000000014400000000054
S11301000000144000000000000014400000000043
S11301100000144000000000000014400000000033
S11301200000144000000000000014400000000023
S11301300000144000000000000014400000000013
S11301400000144000000000000014400000000003
S113015000001440000000000000144000000000F3
S113016000001440000000000000144000000000E3
S113017000001440000000000000144000000000D3
S113018000001440000000000000144000000000C3
S113019000001440000000000000144000000000B3
S11301A000001440000000000000144000000000A3
S11301B00000144000000000000014400000000093
S11301C00000144000000000000014400000000083
S11301D00000144000000000000014400000000073
S11301E00000144000000000000014400000000063
S11301F00000144000000000000014400000000053
S11302000000144000000000000014400000000042
S11302100000144000000000000014400000000032
S11302200000144000000000000014400000000022
S11302300000144000000000000014400000000012
S11302400000144000000000000014400000000002
S113025000001440000000000000144000000000F2
S113026000001440000000000000144000000000E2
S113027000001440000000000000144000000000D2
S113028000001440000000000000144000000000C2
S113029000001440000000000000144000000000B2
S11302A000001440000000000000144000000000A2
S11302B00000144000000000000014400000000092
S11302C00000144000000000000014400000000082
S11302D00000144000000000000014400000000072
S11302E00000144000000000000014400000000062
S11302F00000144000000000000014400000000052
S11303000000144000000000000014400000000041
S11303100000144000000000000014400000000031
S11303200000144000000000000014400000000021
S11303300000144000000000000014400000000011
S11303400000144000000000000014400000000001
S113035000001440000000000000144000000000F1
S113036000001440000000000000144000000000E1
S113037000001440000000000000144000000000D1
S113038000001440000000000000144000000000C1
S113039000001440000000000000144000000000B1
S11303A000001440000000000000144000000000A1
S11303B00000144000000000000014400000000091
S11303C00000144000000000000014400000000081
S11303D00000144000000000000014400000000071
S11303E00000144000000000000014400000000061
S11303F00000144000000000000014400000000051
S11304000000144000000000000014400000000040
S11304100000144000000000000014400000000030
S11304200000144000000000000014400000000020
S11304300000144000000000000014400000000010
S11304400000144000000000000014400000000000
S113045000001440000000000000144000000000F0
S113046000001440000000000000144000000000E0
S113047000001440000000000000144000000000D0
S113048000001440000000000000144000000000C0
S113049000001440000000000000144000000000B0
S11304A000001440000000000000144000000000A0
S11304B00000144000000000000014400000000090
S11304C00000144000000000000014400000000080
S11304D00000144000000000000014400000000070
S11304E00000144000000000000014400000000060
S11304F00000144000000000000014400000000050
S1130500000014400000000000001440000000003F
S1130510000014400000000000001440000000002F
S1130520000014400000000000001440000000001F
S1130530000014400000000000001440000000000F
S113054000001440000000000000144000000000FF
S113055000001440000000000000144000000000EF
S113056000001440000000000000144000000000DF
S113057000001440000000000000144000000000CF
S113058000001440000000000000144000000000BF
S113059000001440000000000000144000000000AF
S11305A0000014400000000000001440000000009F
S11305B0000014400000000000001440000000008F
S11305C0000014400000000000001440000000007F
S11305D0000014400000000000001440000000006F
S11305E0000014400000000000001440000000005F
S11305F0000014400000000000001440000000004F
S1130600000014400000000000001440000000003E
S1130610000014400000000000001440000000002E
S1130620000014400000000000001440000000001E
S1130630000014400000000000001440000000000E
S113064000001440000000000000144000000000FE
S113065000001440000000000000144000000000EE
S113066000001440000000000000144000000000DE
S113067000001440000000000000144000000000CE
S113068000001440000000000000144000000000BE
S113069000001440000000000000144000000000AE
S11306A0000014400000000000001440000000009E
S11306B0000014400000000000001440000000008E
S11306C0000014400000000000001440000000007E
S11306D0000014400000000000001440000000006E
S11306E0000014400000000000001440000000005E
S11306F0000014400000000000001440000000004E
S1130700000014400000000000001440000000003D
S1130710000014400000000000001440000000002D
S1130720000014400000000000001440000000001D
S1130730000014400000000000001440000000000D
S113074000001440000000000000144000000000FD
S113075000001440000000000000144000000000ED
S113076000001440000000000000144000000000DD
S113077000001440000000000000144000000000CD
S113078000001440000000000000144000000000BD
S113079000001440000000000000144000000000AD
S11307A0000014400000000000001440000000009D
S11307B0000014400000000000001440000000008D
S11307C0000014400000000000001440000000007D
S11307D0000014400000000000001440000000006D
S11307E0000014400000000000001440000000005D
S11307F0000014400000000000001440000000004D
S1130800000014400000000000001440000000003C
S1130810000014400000000000001440000000002C
S1130820000014400000000000001440000000001C
S1130830000014400000000000001440000000000C
S113084000001440000000000000144000000000FC
S113085000001440000000000000144000000000EC
S113086000001440000000000000144000000000DC
S113087000001440000000000000144000000000CC
S113088000001440000000000000144000000000BC
S113089000001440000000000000144000000000AC
S11308A0000014400000000000001440000000009C
S11308B0000014400000000000001440000000008C
S11308C0000014400000000000001440000000007C
S11308D00000144000000000000000000000184068
S11308E00000000000001840000000000000184054
S11308F00000000000001840000000000000184044
S11309000000000000001840000000000000184033
S11309100000000000001840000000000000184023
S11309200000000000001840000000000000184013
S11309300000000000001840000000000000184003
S113094000000000000018400000000000001840F3
S113095000000000000018400000000000001840E3
S113096000000000000018400000000000001840D3
S113097000000000000018400000000000001840C3
S113098000000000000018400000000000001840B3
S113099000000000000018400000000000001840A3
S11309A00000000000001840000000000000184093
S11309B00000000000001840000000000000184083
S11309C00000000000001840000000000000184073
S11309D00000000000001840000000000000184063
S11309E00000000000001840000000000000184053
S11309F00000000000001840000000000000184043
S1130A000000000000001840000000000000184032
S1130A100000000000001840000000000000184022
S1130A200000000000001840000000000000184012
S1130A300000000000001840000000000000184002
S1130A4000000000000018400000000000001840F2
S1130A5000000000000018400000000000001840E2
S1130A6000000000000018400000000000001840D2
S1130A7000000000000018400000000000001840C2
S1130A8000000000000018400000000000001840B2
S1130A9000000000000018400000000000001840A2
S1130AA00000000000001840000000000000184092
S1130AB00000000000001840000000000000184082
S1130AC00000000000001840000000000000184072
S1130AD00000000000001840000000000000184062
S1130AE00000000000001840000000000000184052
S1130AF00000000000001840000000000000184042
S1130B000000000000001840000000000000184031
S1130B100000000000001840000000000000184021
S1130B200000000000001840000000000000184011
S1130B300000000000001840000000000000184001
S1130B4000000000000018400000000000001840F1
S1130B5000000000000018400000000000001840E1
S1130B6000000000000018400000000000001840D1
S1130B7000000000000018400000000000001840C1
S1130B8000000000000018400000000000001840B1
S1130B9000000000000018400000000000001840A1
S1130BA00000000000001840000000000000184091
S1130BB00000000000001840000000000000184081
S1130BC00000000000001840000000000000184071
S1130BD00000000000001840000000000000184061
S1130BE00000000000001840000000000000184051
S1130BF00000000000001840000000000000184041
S1130C000000000000001840000000000000184030
S1130C100000000000001840000000000000184020
S1130C200000000000001840000000000000184010
S1130C300000000000001840000000000000184000
S1130C4000000000000018400000000000001840F0
S1130C5000000000000018400000000000001840E0
S1130C6000000000000018400000000000001840D0
S1130C7000000000000018400000000000001840C0
S1130C8000000000000018400000000000001840B0
S1130C9000000000000018400000000000001840A0
S1130CA00000000000001840000000000000184090
S1130CB00000000000001840000000000000184080
S1130CC00000000000001840000000000000184070
S1130CD00000000000001840000000000000184060
S1130CE00000000000001840000000000000184050
S1130CF00000000000001840000000000000184040
S1130D00000000000000184000000000000018402F
S1130D10000000000000184000000000000018401F
S1130D20000000000000184000000000000018400F
S1130D3000000000000018400000000000001840FF
S1130D4000000000000018400000000000001840EF
S1130D5000000000000018400000000000001840DF
S1130D6000000000000018400000000000001840CF
S1130D7000000000000018400000000000001840BF
S1130D8000000000000018400000000000001840AF
S1130D90000000000000184000000000000018409F
S1130DA0000000000000184000000000000018408F
S1130DB0000000000000184000000000000018407F
S1130DC0000000000000184000000000000018406F
S1130DD0000000000000184000000000000018405F
S1130DE0000000000000184000000000000018404F
S1130DF0000000000000184000000000000018403F
S1130E00000000000000184000000000000018402E
S1130E10000000000000184000000000000018401E
S1130E20000000000000184000000000000018400E
S1130E3000000000000018400000000000001840FE
S1130E4000000000000018400000000000001840EE
S1130E5000000000000018400000000000001840DE
S1130E6000000000000018400000000000001840CE
S1130E7000000000000018400000000000001840BE
S1130E8000000000000018400000000000001840AE
S1130E90000000000000184000000000000018409E
S1130EA0000000000000184000000000000018408E
S1130EB0000000000000184000000000000018407E
S1130EC0000000000000184000000000000018406E
S1130ED0000000000000184000000000000018405E
S1130EE0000000000000184000000000000018404E
S1130EF0000000000000184000000000000018403E
S1130F00000000000000184000000000000018402D
S1130F10000000000000184000000000000018401D
S1130F20000000000000184000000000000018400D
S1130F3000000000000018400000000000001840FD
S1130F4000000000000018400000000000001840ED
S1130F5000000000000018400000000000001840DD
S1130F6000000000000018400000000000001840CD
S1130F7000000000000018400000000000001840BD
S1130F8000000000000018400000000000001840AD
S1130F90000000000000184000000000000018409D
S1130FA0000000000000184000000000000018408D
S1130FB0000000000000184000000000000018407D
S1130FC0000000000000184000000000000018406D
S1130FD0000000000000184000000000000018405D
S1130FE0000000000000184000000000000018404D
S1130FF0000000000000184000000000000018403D
S1131000000000000000184000000000000018402C
S1131010000000000000184000000000000018401C
S1131020000000000000184000000000000018400C
S113103000000000000018400000000000001840FC
S113104000000000000018400000000000001840EC
S113105000000000000018400000000000001840DC
S113106000000000000018400000000000001840CC
S113107000000000000018400000000000001840BC
S113108000000000000018400000000000001840AC
S1131090000000000000184000000000000018409C
S11310A0000000000000184000000000000018408C
S11310B0000000000000184000000000000018407C
S11310C0000000000000184000000000000018406C
S11310D000000000000018400000000000000000B4
S11310E000000000000000000000000000000000FC
S11310F000000000000000000000000000000000EC
S113110000000000000000000000000000000000DB
S113111000000000000000000000000000000000CB
S113112000000000000000000000000000000000BB
S113113000000000000000000000000000000000AB
S1131140000000000000000000000000000000009B
S1131150000000000000000000000000000000008B
S1131160000000000000000000000000000000007B
S1131170000000000000000000000000000000006B
S1131180000000000000000000000000000000005B
S1131190000000000000000000000000000000004B
S11311A0000000000000000000000000000000003B
S11311B0000000000000000000000000000000002B
S11311C0000000000000000000000000000000001B
S11311D0000000000000000000000000000000000B
S11311E000000000000000000000000000000000FB
S11311F000000000000000000000000000000000EB
S113120000000000000000000000000000000000DA
S113121000000000000000000000000000000000CA
S113122000000000000000000000000000000000BA
S113123000000000000000000000000000000000AA
S1131240000000000000000000000000000000009A
S1131250000000000000000000000000000000008A
S1131260000000000000000000000000000000007A
S1131270000000000000000000000000000000006A
S1131280000000000000000000000000000000005A
S1131290000000000000000000000000000000004A
S11312A0000000000000000000000000000000003A
S11312B0000000000000000000000000000000002A
S11312C0000000000000000000000000000000001A
S11312D0000000000000000000000000000000000A
S11312E000000000000000000000000000000000FA
S11312F000000000000000000000000000000000EA
S113130000000000000000000000000000000000D9
S113131000000000000000000000000000000000C9
S113132000000000000000000000000000000000B9
S113133000000000000000000000000000000000A9
S11313400000000000000000000000000000000099
S11313500000000000000000000000000000000089
S11313600000000000000000000000000000000079
S11313700000000000000000000000000000000069
S11313800000000000000000000000000000000059
S11313900000000000000000000000000000000049
S11313A00000000000000000000000000000000039
S11313B00000000000000000000000000000000029
S11313C00000000000000000000000000000000019
S11313D00000000000000000000000000000000009
S11313E000000000000000000000000000000000F9
S11313F000000000000000000000000000000000E9
S113140000000000000000000000000000000000D8
S113141000000000000000000000000000000000C8
S113142000000000000000000000000000000000B8
S113143000000000000000000000000000000000A8
S11314400000000000000000000000000000000098
S11314500000000000000000000000000000000088
S11314600000000000000000000000000000000078
S11314700000000000000000000000000000000068
S11314800000000000000000000000000000000058
S11314900000000000000000000000000000000048
S11314A00000000000000000000000000000000038
S11314B00000000000000000000000000000000028
S11314C00000000000000000000000000000000018
S11314D00000000000000000000000000000000008
S11314E000000000000000000000000000000000F8
S11314F000000000000000000000000000000000E8
S113150000000000000000000000000000000000D7
S113151000000000000000000000000000000000C7
S113152000000000000000000000000000000000B7
S113153000000000000000000000000000000000A7
S11315400000000000000000000000000000000097
S11315500000000000000000000000000000000087
S11315600000000000000000000000000000000077
S11315700000000000000000000000000000000067
S11315800000000000000000000000000000000057
S11315900000000000000000000000000000000047
S11315A00000000000000000000000000000000037
S11315B00000000000000000000000000000000027
S11315C00000000000000000000000000000000017
S11315D00000000000000000000000000000000007
S11315E000000000000000000000000000000000F7
S11315F000000000000000000000000000000000E7
S113160000000000000000000000000000000000D6
S113161000000000000000000000000000000000C6
S113162000000000000000000000000000000000B6
S113163000000000000000000000000000000000A6
S11316400000000000000000000000000000000096
S11316500000000000000000000000000000000086
S11316600000000000000000000000000000000076
S11316700000000000000000000000000000000066
S11316800000000000000000000000000000000056
S11316900000000000000000000000000000000046
S11316A00000000000000000000000000000000036
S11316B00000000000000000000000000000000026
S11316C00000000000000000000000000000000016
S11316D00000000000000000000000000000000006
S11316E000000000000000000000000000000000F6
S11316F000000000000000000000000000000000E6
S113170000000000000000000000000000000000D5
S113171000000000000000000000000000000000C5
S113172000000000000000000000000000000000B5
S113173000000000000000000000000000000000A5
S11317400000000000000000000000000000000095
S11317500000000000000000000000000000000085
S11317600000000000000000000000000000000075
S11317700000000000000000000000000000000065
S11317800000000000000000000000000000000055
S11317900000000000000000000000000000000045
S11317A00000000000000000000000000000000035
S11317B00000000000000000000000000000000025
S11317C00000000000000000000000000000000015
S11317D00000000000000000000000000000000005
S11317E000000000000000000000000000000000F5
S11317F000000000000000000000000000000000E5
S113180000000000000000000000000000000000D4
S113181000000000000000000000000000000000C4
S113182000000000000000000000000000000000B4
S113183000000000000000000000000000000000A4
S11318400000000000000000000000000000000094
S11318500000000000000000000000000000000084
S11318600000000000000000000000000000000074
S11318700000000000000000000000000000000064
S11318800000000000000000000000000000000054
S11318900000000000000000000000000000000044
S11318A00000000000000000000000000000000034
S11318B00000000000000000000000000000000024
S11318C00000000000000000000000000000000014
S11318D00000000000000000000000000000000004
S11318E0C6F9FFEB0000A0E3BC0F09EE1110A0E362
S11318F03D1F09EE0100A0E3BC0F09EE0610A0E3B2
S11319003D1F09EE0200A0E3BC0F09EE0310A0E3A3
S11319103D1F09EE0700A0E33C0F09EE0300A0E31E
S11319201C0F09EE0000A0E328419FE5004094E568
S1131930040050E1000000BA0C0000EA0010A0E32B
S1131940040051E1010000BA040080E0F7FFFFEA5F
S11319500020A0E3040052E1010000BA041081E079
S1131960F6FFFFEA0D0000EB042082E0F8FFFFEA37
S11319700000A0E31C0F09EE0000A0E3BC0F09EE79
S11319805D3F19EE0100A0E3BC0F09EE5D7F19EE87
S11319900200A0E3BC0F09EE5D8F19EEFEFFFFEA23
S11319A0FF5F2DE90030A0E1AC709FE5007097E582
S11319B0A0C09FE500C09CE50360A0E1038087E030
S11319C0080056E1000000BA200000EA0140A0E14E
S11319D0018087E0080054E1010000BA016086E25A
S11319E0F5FFFFEA940C08E0069088E06CA09FE500
S11319F089A18AE0000B9AED0250A0E1028087E001
S1131A00080055E1000000BA0D0000EA950C08E05A
S1131A10069088E048809FE5898188E0001B98ED66
S1131A20940C08E0059088E038809FE5898188E07F
S1131A30002B98ED023B21EE030B30EE015085E2C2
S1131A40EDFFFFEA000B8AED014084E2DFFFFFEACD
S1131A50FF5FBDE81EFF2FE1C4000000D0000000BE
S10F1A60DC100000D4000000D8080000D6
S1131A6C000000000000000000000000801A0000CC
S1071A7C0000000062
S90318E004
